Lab3_KHAN_M/src/dump.vcd
$date
	Tue Feb 25 06:56:10 2020
$end
$version
	ModelSim Version 10.5b
$end
$timescale
	1ps
$end

$scope module digit_timer_tb $end
$var reg 1 ! clock $end

$scope module digital_clock0 $end
$var parameter 32 " N $end
$var wire 1 # clock $end
$var reg 26 $ slow_clk [25:0] $end
$var reg 8 % countsec [7:0] $end
$var wire 1 & enable $end
$upscope $end
$upscope $end
$enddefinitions $end
#0
$dumpvars
0!
b0 $
b0 %
b11010 "
0&
0#
$end
#10
1!
1#
b1 $
#20
0!
0#
#30
1!
1#
b10 $
#40
0!
0#
#50
1!
1#
b11 $
#60
0!
0#
#70
1!
1#
b100 $
#80
0!
0#
#90
1!
1#
b101 $
#100
0!
0#
#110
1!
1#
b110 $
#120
0!
0#
#130
1!
1#
b111 $
#140
0!
0#
#150
1!
1#
b1000 $
#160
0!
0#
#170
1!
1#
b1001 $
#180
0!
0#
#190
1!
1#
b1010 $
#200
0!
0#
#210
1!
1#
b1011 $
#220
0!
0#
#230
1!
1#
b1100 $
#240
0!
0#
#250
1!
1#
b1101 $
#260
0!
0#
#270
1!
1#
b1110 $
#280
0!
0#
#290
1!
1#
b1111 $
#300
0!
0#
#310
1!
1#
b10000 $
#320
0!
0#
#330
1!
1#
b10001 $
#340
0!
0#
#350
1!
1#
b10010 $
#360
0!
0#
#370
1!
1#
b10011 $
#380
0!
0#
#390
1!
1#
b10100 $
#400
0!
0#
#410
1!
1#
b10101 $
#420
0!
0#
#430
1!
1#
b10110 $
#440
0!
0#
#450
1!
1#
b10111 $
#460
0!
0#
#470
1!
1#
b11000 $
#480
0!
0#
#490
1!
1#
b11001 $
#500
0!
0#
#510
1!
1#
b11010 $
#520
0!
0#
#530
1!
1#
b11011 $
#540
0!
0#
#550
1!
1#
b11100 $
#560
0!
0#
#570
1!
1#
b11101 $
#580
0!
0#
#590
1!
1#
b11110 $
#600
0!
0#
#610
1!
1#
b11111 $
#620
0!
0#
#630
1!
1#
b100000 $
#640
0!
0#
#650
1!
1#
b100001 $
#660
0!
0#
#670
1!
1#
b100010 $
#680
0!
0#
#690
1!
1#
b100011 $
#700
0!
0#
#710
1!
1#
b100100 $
#720
0!
0#
#730
1!
1#
b100101 $
#740
0!
0#
#750
1!
1#
b100110 $
#760
0!
0#
#770
1!
1#
b100111 $
#780
0!
0#
#790
1!
1#
b101000 $
#800
0!
0#
#810
1!
1#
b101001 $
#820
0!
0#
#830
1!
1#
b101010 $
#840
0!
0#
#850
1!
1#
b101011 $
#860
0!
0#
#870
1!
1#
b101100 $
#880
0!
0#
#890
1!
1#
b101101 $
#900
0!
0#
#910
1!
1#
b101110 $
#920
0!
0#
#930
1!
1#
b101111 $
#940
0!
0#
#950
1!
1#
b110000 $
#960
0!
0#
#970
1!
1#
b110001 $
1&
#980
0!
0#
#990
1!
1#
b0 $
b1 %
0&
#1000
0!
0#
#1010
1!
1#
b1 $
#1020
0!
0#
#1030
1!
1#
b10 $
#1040
0!
0#
#1050
1!
1#
b11 $
#1060
0!
0#
#1070
1!
1#
b100 $
#1080
0!
0#
#1090
1!
1#
b101 $
#1100
0!
0#
#1110
1!
1#
b110 $
#1120
0!
0#
#1130
1!
1#
b111 $
#1140
0!
0#
#1150
1!
1#
b1000 $
#1160
0!
0#
#1170
1!
1#
b1001 $
#1180
0!
0#
#1190
1!
1#
b1010 $
#1200
0!
0#
#1210
1!
1#
b1011 $
#1220
0!
0#
#1230
1!
1#
b1100 $
#1240
0!
0#
#1250
1!
1#
b1101 $
#1260
0!
0#
#1270
1!
1#
b1110 $
#1280
0!
0#
#1290
1!
1#
b1111 $
#1300
0!
0#
#1310
1!
1#
b10000 $
#1320
0!
0#
#1330
1!
1#
b10001 $
#1340
0!
0#
#1350
1!
1#
b10010 $
#1360
0!
0#
#1370
1!
1#
b10011 $
#1380
0!
0#
#1390
1!
1#
b10100 $
#1400
0!
0#
#1410
1!
1#
b10101 $
#1420
0!
0#
#1430
1!
1#
b10110 $
#1440
0!
0#
#1450
1!
1#
b10111 $
#1460
0!
0#
#1470
1!
1#
b11000 $
#1480
0!
0#
#1490
1!
1#
b11001 $
#1500
0!
0#
#1510
1!
1#
b11010 $
#1520
0!
0#
#1530
1!
1#
b11011 $
#1540
0!
0#
#1550
1!
1#
b11100 $
#1560
0!
0#
#1570
1!
1#
b11101 $
#1580
0!
0#
#1590
1!
1#
b11110 $
#1600
0!
0#
#1610
1!
1#
b11111 $
#1620
0!
0#
#1630
1!
1#
b100000 $
#1640
0!
0#
#1650
1!
1#
b100001 $
#1660
0!
0#
#1670
1!
1#
b100010 $
#1680
0!
0#
#1690
1!
1#
b100011 $
#1700
0!
0#
#1710
1!
1#
b100100 $
#1720
0!
0#
#1730
1!
1#
b100101 $
#1740
0!
0#
#1750
1!
1#
b100110 $
#1760
0!
0#
#1770
1!
1#
b100111 $
#1780
0!
0#
#1790
1!
1#
b101000 $
#1800
0!
0#
#1810
1!
1#
b101001 $
#1820
0!
0#
#1830
1!
1#
b101010 $
#1840
0!
0#
#1850
1!
1#
b101011 $
#1860
0!
0#
#1870
1!
1#
b101100 $
#1880
0!
0#
#1890
1!
1#
b101101 $
#1900
0!
0#
#1910
1!
1#
b101110 $
#1920
0!
0#
#1930
1!
1#
b101111 $
#1940
0!
0#
#1950
1!
1#
b110000 $
#1960
0!
0#
#1970
1!
1#
b110001 $
1&
#1980
0!
0#
#1990
1!
1#
b0 $
b10 %
0&
#2000
0!
0#
#2010
1!
1#
b1 $
#2020
0!
0#
#2030
1!
1#
b10 $
#2040
0!
0#
#2050
1!
1#
b11 $
#2060
0!
0#
#2070
1!
1#
b100 $
#2080
0!
0#
#2090
1!
1#
b101 $
#2100
0!
0#
#2110
1!
1#
b110 $
#2120
0!
0#
#2130
1!
1#
b111 $
#2140
0!
0#
#2150
1!
1#
b1000 $
#2160
0!
0#
#2170
1!
1#
b1001 $
#2180
0!
0#
#2190
1!
1#
b1010 $
#2200
0!
0#
#2210
1!
1#
b1011 $
#2220
0!
0#
#2230
1!
1#
b1100 $
#2240
0!
0#
#2250
1!
1#
b1101 $
#2260
0!
0#
#2270
1!
1#
b1110 $
#2280
0!
0#
#2290
1!
1#
b1111 $
#2300
0!
0#
#2310
1!
1#
b10000 $
#2320
0!
0#
#2330
1!
1#
b10001 $
#2340
0!
0#
#2350
1!
1#
b10010 $
#2360
0!
0#
#2370
1!
1#
b10011 $
#2380
0!
0#
#2390
1!
1#
b10100 $
#2400
0!
0#
#2410
1!
1#
b10101 $
#2420
0!
0#
#2430
1!
1#
b10110 $
#2440
0!
0#
#2450
1!
1#
b10111 $
#2460
0!
0#
#2470
1!
1#
b11000 $
#2480
0!
0#
#2490
1!
1#
b11001 $
#2500
0!
0#
#2510
1!
1#
b11010 $
#2520
0!
0#
#2530
1!
1#
b11011 $
#2540
0!
0#
#2550
1!
1#
b11100 $
#2560
0!
0#
#2570
1!
1#
b11101 $
#2580
0!
0#
#2590
1!
1#
b11110 $
#2600
0!
0#
#2610
1!
1#
b11111 $
#2620
0!
0#
#2630
1!
1#
b100000 $
#2640
0!
0#
#2650
1!
1#
b100001 $
#2660
0!
0#
#2670
1!
1#
b100010 $
#2680
0!
0#
#2690
1!
1#
b100011 $
#2700
0!
0#
#2710
1!
1#
b100100 $
#2720
0!
0#
#2730
1!
1#
b100101 $
#2740
0!
0#
#2750
1!
1#
b100110 $
#2760
0!
0#
#2770
1!
1#
b100111 $
#2780
0!
0#
#2790
1!
1#
b101000 $
#2800
0!
0#
#2810
1!
1#
b101001 $
#2820
0!
0#
#2830
1!
1#
b101010 $
#2840
0!
0#
#2850
1!
1#
b101011 $
#2860
0!
0#
#2870
1!
1#
b101100 $
#2880
0!
0#
#2890
1!
1#
b101101 $
#2900
0!
0#
#2910
1!
1#
b101110 $
#2920
0!
0#
#2930
1!
1#
b101111 $
#2940
0!
0#
#2950
1!
1#
b110000 $
#2960
0!
0#
#2970
1!
1#
b110001 $
1&
#2980
0!
0#
#2990
1!
1#
b0 $
b11 %
0&
#3000
0!
0#
#3010
1!
1#
b1 $
#3020
0!
0#
#3030
1!
1#
b10 $
#3040
0!
0#
#3050
1!
1#
b11 $
#3060
0!
0#
#3070
1!
1#
b100 $
#3080
0!
0#
#3090
1!
1#
b101 $
#3100
0!
0#
#3110
1!
1#
b110 $
#3120
0!
0#
#3130
1!
1#
b111 $
#3140
0!
0#
#3150
1!
1#
b1000 $
#3160
0!
0#
#3170
1!
1#
b1001 $
#3180
0!
0#
#3190
1!
1#
b1010 $
#3200
0!
0#
#3210
1!
1#
b1011 $
#3220
0!
0#
#3230
1!
1#
b1100 $
#3240
0!
0#
#3250
1!
1#
b1101 $
#3260
0!
0#
#3270
1!
1#
b1110 $
#3280
0!
0#
#3290
1!
1#
b1111 $
#3300
0!
0#
#3310
1!
1#
b10000 $
#3320
0!
0#
#3330
1!
1#
b10001 $
#3340
0!
0#
#3350
1!
1#
b10010 $
#3360
0!
0#
#3370
1!
1#
b10011 $
#3380
0!
0#
#3390
1!
1#
b10100 $
#3400
0!
0#
#3410
1!
1#
b10101 $
#3420
0!
0#
#3430
1!
1#
b10110 $
#3440
0!
0#
#3450
1!
1#
b10111 $
#3460
0!
0#
#3470
1!
1#
b11000 $
#3480
0!
0#
#3490
1!
1#
b11001 $
#3500
0!
0#
#3510
1!
1#
b11010 $
#3520
0!
0#
#3530
1!
1#
b11011 $
#3540
0!
0#
#3550
1!
1#
b11100 $
#3560
0!
0#
#3570
1!
1#
b11101 $
#3580
0!
0#
#3590
1!
1#
b11110 $
#3600
0!
0#
#3610
1!
1#
b11111 $
#3620
0!
0#
#3630
1!
1#
b100000 $
#3640
0!
0#
#3650
1!
1#
b100001 $
#3660
0!
0#
#3670
1!
1#
b100010 $
#3680
0!
0#
#3690
1!
1#
b100011 $
#3700
0!
0#
#3710
1!
1#
b100100 $
#3720
0!
0#
#3730
1!
1#
b100101 $
#3740
0!
0#
#3750
1!
1#
b100110 $
#3760
0!
0#
#3770
1!
1#
b100111 $
#3780
0!
0#
#3790
1!
1#
b101000 $
#3800
0!
0#
#3810
1!
1#
b101001 $
#3820
0!
0#
#3830
1!
1#
b101010 $
#3840
0!
0#
#3850
1!
1#
b101011 $
#3860
0!
0#
#3870
1!
1#
b101100 $
#3880
0!
0#
#3890
1!
1#
b101101 $
#3900
0!
0#
#3910
1!
1#
b101110 $
#3920
0!
0#
#3930
1!
1#
b101111 $
#3940
0!
0#
#3950
1!
1#
b110000 $
#3960
0!
0#
#3970
1!
1#
b110001 $
1&
#3980
0!
0#
#3990
1!
1#
b0 $
b100 %
0&
#4000
0!
0#
#4010
1!
1#
b1 $
#4020
0!
0#
#4030
1!
1#
b10 $
#4040
0!
0#
#4050
1!
1#
b11 $
#4060
0!
0#
#4070
1!
1#
b100 $
#4080
0!
0#
#4090
1!
1#
b101 $
#4100
0!
0#
#4110
1!
1#
b110 $
#4120
0!
0#
#4130
1!
1#
b111 $
#4140
0!
0#
#4150
1!
1#
b1000 $
#4160
0!
0#
#4170
1!
1#
b1001 $
#4180
0!
0#
#4190
1!
1#
b1010 $
#4200
0!
0#
#4210
1!
1#
b1011 $
#4220
0!
0#
#4230
1!
1#
b1100 $
#4240
0!
0#
#4250
1!
1#
b1101 $
#4260
0!
0#
#4270
1!
1#
b1110 $
#4280
0!
0#
#4290
1!
1#
b1111 $
#4300
0!
0#
#4310
1!
1#
b10000 $
#4320
0!
0#
#4330
1!
1#
b10001 $
#4340
0!
0#
#4350
1!
1#
b10010 $
#4360
0!
0#
#4370
1!
1#
b10011 $
#4380
0!
0#
#4390
1!
1#
b10100 $
#4400
0!
0#
#4410
1!
1#
b10101 $
#4420
0!
0#
#4430
1!
1#
b10110 $
#4440
0!
0#
#4450
1!
1#
b10111 $
#4460
0!
0#
#4470
1!
1#
b11000 $
#4480
0!
0#
#4490
1!
1#
b11001 $
#4500
0!
0#
#4510
1!
1#
b11010 $
#4520
0!
0#
#4530
1!
1#
b11011 $
#4540
0!
0#
#4550
1!
1#
b11100 $
#4560
0!
0#
#4570
1!
1#
b11101 $
#4580
0!
0#
#4590
1!
1#
b11110 $
#4600
0!
0#
#4610
1!
1#
b11111 $
#4620
0!
0#
#4630
1!
1#
b100000 $
#4640
0!
0#
#4650
1!
1#
b100001 $
#4660
0!
0#
#4670
1!
1#
b100010 $
#4680
0!
0#
#4690
1!
1#
b100011 $
#4700
0!
0#
#4710
1!
1#
b100100 $
#4720
0!
0#
#4730
1!
1#
b100101 $
#4740
0!
0#
#4750
1!
1#
b100110 $
#4760
0!
0#
#4770
1!
1#
b100111 $
#4780
0!
0#
#4790
1!
1#
b101000 $
#4800
0!
0#
#4810
1!
1#
b101001 $
#4820
0!
0#
#4830
1!
1#
b101010 $
#4840
0!
0#
#4850
1!
1#
b101011 $
#4860
0!
0#
#4870
1!
1#
b101100 $
#4880
0!
0#
#4890
1!
1#
b101101 $
#4900
0!
0#
#4910
1!
1#
b101110 $
#4920
0!
0#
#4930
1!
1#
b101111 $
#4940
0!
0#
#4950
1!
1#
b110000 $
#4960
0!
0#
#4970
1!
1#
b110001 $
1&
#4980
0!
0#
#4990
1!
1#
b0 $
b101 %
0&
#5000
0!
0#
#5010
1!
1#
b1 $
#5020
0!
0#
#5030
1!
1#
b10 $
#5040
0!
0#
#5050
1!
1#
b11 $
#5060
0!
0#
#5070
1!
1#
b100 $
#5080
0!
0#
#5090
1!
1#
b101 $
#5100
0!
0#
#5110
1!
1#
b110 $
#5120
0!
0#
#5130
1!
1#
b111 $
#5140
0!
0#
#5150
1!
1#
b1000 $
#5160
0!
0#
#5170
1!
1#
b1001 $
#5180
0!
0#
#5190
1!
1#
b1010 $
#5200
0!
0#
#5210
1!
1#
b1011 $
#5220
0!
0#
#5230
1!
1#
b1100 $
#5240
0!
0#
#5250
1!
1#
b1101 $
#5260
0!
0#
#5270
1!
1#
b1110 $
#5280
0!
0#
#5290
1!
1#
b1111 $
#5300
0!
0#
#5310
1!
1#
b10000 $
#5320
0!
0#
#5330
1!
1#
b10001 $
#5340
0!
0#
#5350
1!
1#
b10010 $
#5360
0!
0#
#5370
1!
1#
b10011 $
#5380
0!
0#
#5390
1!
1#
b10100 $
#5400
0!
0#
#5410
1!
1#
b10101 $
#5420
0!
0#
#5430
1!
1#
b10110 $
#5440
0!
0#
#5450
1!
1#
b10111 $
#5460
0!
0#
#5470
1!
1#
b11000 $
#5480
0!
0#
#5490
1!
1#
b11001 $
#5500
0!
0#
#5510
1!
1#
b11010 $
#5520
0!
0#
#5530
1!
1#
b11011 $
#5540
0!
0#
#5550
1!
1#
b11100 $
#5560
0!
0#
#5570
1!
1#
b11101 $
#5580
0!
0#
#5590
1!
1#
b11110 $
#5600
0!
0#
#5610
1!
1#
b11111 $
#5620
0!
0#
#5630
1!
1#
b100000 $
#5640
0!
0#
#5650
1!
1#
b100001 $
#5660
0!
0#
#5670
1!
1#
b100010 $
#5680
0!
0#
#5690
1!
1#
b100011 $
#5700
0!
0#
#5710
1!
1#
b100100 $
#5720
0!
0#
#5730
1!
1#
b100101 $
#5740
0!
0#
#5750
1!
1#
b100110 $
#5760
0!
0#
#5770
1!
1#
b100111 $
#5780
0!
0#
#5790
1!
1#
b101000 $
#5800
0!
0#
#5810
1!
1#
b101001 $
#5820
0!
0#
#5830
1!
1#
b101010 $
#5840
0!
0#
#5850
1!
1#
b101011 $
#5860
0!
0#
#5870
1!
1#
b101100 $
#5880
0!
0#
#5890
1!
1#
b101101 $
#5900
0!
0#
#5910
1!
1#
b101110 $
#5920
0!
0#
#5930
1!
1#
b101111 $
#5940
0!
0#
#5950
1!
1#
b110000 $
#5960
0!
0#
#5970
1!
1#
b110001 $
1&
#5980
0!
0#
#5990
1!
1#
b0 $
b110 %
0&
#6000
0!
0#
#6010
1!
1#
b1 $
#6020
0!
0#
#6030
1!
1#
b10 $
#6040
0!
0#
#6050
1!
1#
b11 $
#6060
0!
0#
#6070
1!
1#
b100 $
#6080
0!
0#
#6090
1!
1#
b101 $
#6100
0!
0#
#6110
1!
1#
b110 $
#6120
0!
0#
#6130
1!
1#
b111 $
#6140
0!
0#
#6150
1!
1#
b1000 $
#6160
0!
0#
#6170
1!
1#
b1001 $
#6180
0!
0#
#6190
1!
1#
b1010 $
#6200
0!
0#
#6210
1!
1#
b1011 $
#6220
0!
0#
#6230
1!
1#
b1100 $
#6240
0!
0#
#6250
1!
1#
b1101 $
#6260
0!
0#
#6270
1!
1#
b1110 $
#6280
0!
0#
#6290
1!
1#
b1111 $
#6300
0!
0#
#6310
1!
1#
b10000 $
#6320
0!
0#
#6330
1!
1#
b10001 $
#6340
0!
0#
#6350
1!
1#
b10010 $
#6360
0!
0#
#6370
1!
1#
b10011 $
#6380
0!
0#
#6390
1!
1#
b10100 $
#6400
0!
0#
#6410
1!
1#
b10101 $
#6420
0!
0#
#6430
1!
1#
b10110 $
#6440
0!
0#
#6450
1!
1#
b10111 $
#6460
0!
0#
#6470
1!
1#
b11000 $
#6480
0!
0#
#6490
1!
1#
b11001 $
#6500
0!
0#
#6510
1!
1#
b11010 $
#6520
0!
0#
#6530
1!
1#
b11011 $
#6540
0!
0#
#6550
1!
1#
b11100 $
#6560
0!
0#
#6570
1!
1#
b11101 $
#6580
0!
0#
#6590
1!
1#
b11110 $
#6600
0!
0#
#6610
1!
1#
b11111 $
#6620
0!
0#
#6630
1!
1#
b100000 $
#6640
0!
0#
#6650
1!
1#
b100001 $
#6660
0!
0#
#6670
1!
1#
b100010 $
#6680
0!
0#
#6690
1!
1#
b100011 $
#6700
0!
0#
#6710
1!
1#
b100100 $
#6720
0!
0#
#6730
1!
1#
b100101 $
#6740
0!
0#
#6750
1!
1#
b100110 $
#6760
0!
0#
#6770
1!
1#
b100111 $
#6780
0!
0#
#6790
1!
1#
b101000 $
#6800
0!
0#
#6810
1!
1#
b101001 $
#6820
0!
0#
#6830
1!
1#
b101010 $
#6840
0!
0#
#6850
1!
1#
b101011 $
#6860
0!
0#
#6870
1!
1#
b101100 $
#6880
0!
0#
#6890
1!
1#
b101101 $
#6900
0!
0#
#6910
1!
1#
b101110 $
#6920
0!
0#
#6930
1!
1#
b101111 $
#6940
0!
0#
#6950
1!
1#
b110000 $
#6960
0!
0#
#6970
1!
1#
b110001 $
1&
#6980
0!
0#
#6990
1!
1#
b0 $
b111 %
0&
#7000
0!
0#
#7010
1!
1#
b1 $
#7020
0!
0#
#7030
1!
1#
b10 $
#7040
0!
0#
#7050
1!
1#
b11 $
#7060
0!
0#
#7070
1!
1#
b100 $
#7080
0!
0#
#7090
1!
1#
b101 $
#7100
0!
0#
#7110
1!
1#
b110 $
#7120
0!
0#
#7130
1!
1#
b111 $
#7140
0!
0#
#7150
1!
1#
b1000 $
#7160
0!
0#
#7170
1!
1#
b1001 $
#7180
0!
0#
#7190
1!
1#
b1010 $
#7200
0!
0#
#7210
1!
1#
b1011 $
#7220
0!
0#
#7230
1!
1#
b1100 $
#7240
0!
0#
#7250
1!
1#
b1101 $
#7260
0!
0#
#7270
1!
1#
b1110 $
#7280
0!
0#
#7290
1!
1#
b1111 $
#7300
0!
0#
#7310
1!
1#
b10000 $
#7320
0!
0#
#7330
1!
1#
b10001 $
#7340
0!
0#
#7350
1!
1#
b10010 $
#7360
0!
0#
#7370
1!
1#
b10011 $
#7380
0!
0#
#7390
1!
1#
b10100 $
#7400
0!
0#
#7410
1!
1#
b10101 $
#7420
0!
0#
#7430
1!
1#
b10110 $
#7440
0!
0#
#7450
1!
1#
b10111 $
#7460
0!
0#
#7470
1!
1#
b11000 $
#7480
0!
0#
#7490
1!
1#
b11001 $
#7500
0!
0#
#7510
1!
1#
b11010 $
#7520
0!
0#
#7530
1!
1#
b11011 $
#7540
0!
0#
#7550
1!
1#
b11100 $
#7560
0!
0#
#7570
1!
1#
b11101 $
#7580
0!
0#
#7590
1!
1#
b11110 $
#7600
0!
0#
#7610
1!
1#
b11111 $
#7620
0!
0#
#7630
1!
1#
b100000 $
#7640
0!
0#
#7650
1!
1#
b100001 $
#7660
0!
0#
#7670
1!
1#
b100010 $
#7680
0!
0#
#7690
1!
1#
b100011 $
#7700
0!
0#
#7710
1!
1#
b100100 $
#7720
0!
0#
#7730
1!
1#
b100101 $
#7740
0!
0#
#7750
1!
1#
b100110 $
#7760
0!
0#
#7770
1!
1#
b100111 $
#7780
0!
0#
#7790
1!
1#
b101000 $
#7800
0!
0#
#7810
1!
1#
b101001 $
#7820
0!
0#
#7830
1!
1#
b101010 $
#7840
0!
0#
#7850
1!
1#
b101011 $
#7860
0!
0#
#7870
1!
1#
b101100 $
#7880
0!
0#
#7890
1!
1#
b101101 $
#7900
0!
0#
#7910
1!
1#
b101110 $
#7920
0!
0#
#7930
1!
1#
b101111 $
#7940
0!
0#
#7950
1!
1#
b110000 $
#7960
0!
0#
#7970
1!
1#
b110001 $
1&
#7980
0!
0#
#7990
1!
1#
b0 $
b1000 %
0&
#8000
0!
0#
#8010
1!
1#
b1 $
#8020
0!
0#
#8030
1!
1#
b10 $
#8040
0!
0#
#8050
1!
1#
b11 $
#8060
0!
0#
#8070
1!
1#
b100 $
#8080
0!
0#
#8090
1!
1#
b101 $
#8100
0!
0#
#8110
1!
1#
b110 $
#8120
0!
0#
#8130
1!
1#
b111 $
#8140
0!
0#
#8150
1!
1#
b1000 $
#8160
0!
0#
#8170
1!
1#
b1001 $
#8180
0!
0#
#8190
1!
1#
b1010 $
#8200
0!
0#
#8210
1!
1#
b1011 $
#8220
0!
0#
#8230
1!
1#
b1100 $
#8240
0!
0#
#8250
1!
1#
b1101 $
#8260
0!
0#
#8270
1!
1#
b1110 $
#8280
0!
0#
#8290
1!
1#
b1111 $
#8300
0!
0#
#8310
1!
1#
b10000 $
#8320
0!
0#
#8330
1!
1#
b10001 $
#8340
0!
0#
#8350
1!
1#
b10010 $
#8360
0!
0#
#8370
1!
1#
b10011 $
#8380
0!
0#
#8390
1!
1#
b10100 $
#8400
0!
0#
#8410
1!
1#
b10101 $
#8420
0!
0#
#8430
1!
1#
b10110 $
#8440
0!
0#
#8450
1!
1#
b10111 $
#8460
0!
0#
#8470
1!
1#
b11000 $
#8480
0!
0#
#8490
1!
1#
b11001 $
#8500
0!
0#
#8510
1!
1#
b11010 $
#8520
0!
0#
#8530
1!
1#
b11011 $
#8540
0!
0#
#8550
1!
1#
b11100 $
#8560
0!
0#
#8570
1!
1#
b11101 $
#8580
0!
0#
#8590
1!
1#
b11110 $
#8600
0!
0#
#8610
1!
1#
b11111 $
#8620
0!
0#
#8630
1!
1#
b100000 $
#8640
0!
0#
#8650
1!
1#
b100001 $
#8660
0!
0#
#8670
1!
1#
b100010 $
#8680
0!
0#
#8690
1!
1#
b100011 $
#8700
0!
0#
#8710
1!
1#
b100100 $
#8720
0!
0#
#8730
1!
1#
b100101 $
#8740
0!
0#
#8750
1!
1#
b100110 $
#8760
0!
0#
#8770
1!
1#
b100111 $
#8780
0!
0#
#8790
1!
1#
b101000 $
#8800
0!
0#
#8810
1!
1#
b101001 $
#8820
0!
0#
#8830
1!
1#
b101010 $
#8840
0!
0#
#8850
1!
1#
b101011 $
#8860
0!
0#
#8870
1!
1#
b101100 $
#8880
0!
0#
#8890
1!
1#
b101101 $
#8900
0!
0#
#8910
1!
1#
b101110 $
#8920
0!
0#
#8930
1!
1#
b101111 $
#8940
0!
0#
#8950
1!
1#
b110000 $
#8960
0!
0#
#8970
1!
1#
b110001 $
1&
#8980
0!
0#
#8990
1!
1#
b0 $
b1001 %
0&
#9000
0!
0#
#9010
1!
1#
b1 $
#9020
0!
0#
#9030
1!
1#
b10 $
#9040
0!
0#
#9050
1!
1#
b11 $
#9060
0!
0#
#9070
1!
1#
b100 $
#9080
0!
0#
#9090
1!
1#
b101 $
#9100
0!
0#
#9110
1!
1#
b110 $
#9120
0!
0#
#9130
1!
1#
b111 $
#9140
0!
0#
#9150
1!
1#
b1000 $
#9160
0!
0#
#9170
1!
1#
b1001 $
#9180
0!
0#
#9190
1!
1#
b1010 $
#9200
0!
0#
#9210
1!
1#
b1011 $
#9220
0!
0#
#9230
1!
1#
b1100 $
#9240
0!
0#
#9250
1!
1#
b1101 $
#9260
0!
0#
#9270
1!
1#
b1110 $
#9280
0!
0#
#9290
1!
1#
b1111 $
#9300
0!
0#
#9310
1!
1#
b10000 $
#9320
0!
0#
#9330
1!
1#
b10001 $
#9340
0!
0#
#9350
1!
1#
b10010 $
#9360
0!
0#
#9370
1!
1#
b10011 $
#9380
0!
0#
#9390
1!
1#
b10100 $
#9400
0!
0#
#9410
1!
1#
b10101 $
#9420
0!
0#
#9430
1!
1#
b10110 $
#9440
0!
0#
#9450
1!
1#
b10111 $
#9460
0!
0#
#9470
1!
1#
b11000 $
#9480
0!
0#
#9490
1!
1#
b11001 $
#9500
0!
0#
#9510
1!
1#
b11010 $
#9520
0!
0#
#9530
1!
1#
b11011 $
#9540
0!
0#
#9550
1!
1#
b11100 $
#9560
0!
0#
#9570
1!
1#
b11101 $
#9580
0!
0#
#9590
1!
1#
b11110 $
#9600
0!
0#
#9610
1!
1#
b11111 $
#9620
0!
0#
#9630
1!
1#
b100000 $
#9640
0!
0#
#9650
1!
1#
b100001 $
#9660
0!
0#
#9670
1!
1#
b100010 $
#9680
0!
0#
#9690
1!
1#
b100011 $
#9700
0!
0#
#9710
1!
1#
b100100 $
#9720
0!
0#
#9730
1!
1#
b100101 $
#9740
0!
0#
#9750
1!
1#
b100110 $
#9760
0!
0#
#9770
1!
1#
b100111 $
#9780
0!
0#
#9790
1!
1#
b101000 $
#9800
0!
0#
#9810
1!
1#
b101001 $
#9820
0!
0#
#9830
1!
1#
b101010 $
#9840
0!
0#
#9850
1!
1#
b101011 $
#9860
0!
0#
#9870
1!
1#
b101100 $
#9880
0!
0#
#9890
1!
1#
b101101 $
#9900
0!
0#
#9910
1!
1#
b101110 $
#9920
0!
0#
#9930
1!
1#
b101111 $
#9940
0!
0#
#9950
1!
1#
b110000 $
#9960
0!
0#
#9970
1!
1#
b110001 $
1&
#9980
0!
0#
#9990
1!
1#
b0 $
b1010 %
0&
#10000
0!
0#
#10010
1!
1#
b1 $
#10020
0!
0#
#10030
1!
1#
b10 $
#10040
0!
0#
#10050
1!
1#
b11 $
#10060
0!
0#
#10070
1!
1#
b100 $
#10080
0!
0#
#10090
1!
1#
b101 $
#10100
0!
0#
#10110
1!
1#
b110 $
#10120
0!
0#
#10130
1!
1#
b111 $
#10140
0!
0#
#10150
1!
1#
b1000 $
#10160
0!
0#
#10170
1!
1#
b1001 $
#10180
0!
0#
#10190
1!
1#
b1010 $
#10200
0!
0#
#10210
1!
1#
b1011 $
#10220
0!
0#
#10230
1!
1#
b1100 $
#10240
0!
0#
#10250
1!
1#
b1101 $
#10260
0!
0#
#10270
1!
1#
b1110 $
#10280
0!
0#
#10290
1!
1#
b1111 $
#10300
0!
0#
#10310
1!
1#
b10000 $
#10320
0!
0#
#10330
1!
1#
b10001 $
#10340
0!
0#
#10350
1!
1#
b10010 $
#10360
0!
0#
#10370
1!
1#
b10011 $
#10380
0!
0#
#10390
1!
1#
b10100 $
#10400
0!
0#
#10410
1!
1#
b10101 $
#10420
0!
0#
#10430
1!
1#
b10110 $
#10440
0!
0#
#10450
1!
1#
b10111 $
#10460
0!
0#
#10470
1!
1#
b11000 $
#10480
0!
0#
#10490
1!
1#
b11001 $
#10500
0!
0#
#10510
1!
1#
b11010 $
#10520
0!
0#
#10530
1!
1#
b11011 $
#10540
0!
0#
#10550
1!
1#
b11100 $
#10560
0!
0#
#10570
1!
1#
b11101 $
#10580
0!
0#
#10590
1!
1#
b11110 $
#10600
0!
0#
#10610
1!
1#
b11111 $
#10620
0!
0#
#10630
1!
1#
b100000 $
#10640
0!
0#
#10650
1!
1#
b100001 $
#10660
0!
0#
#10670
1!
1#
b100010 $
#10680
0!
0#
#10690
1!
1#
b100011 $
#10700
0!
0#
#10710
1!
1#
b100100 $
#10720
0!
0#
#10730
1!
1#
b100101 $
#10740
0!
0#
#10750
1!
1#
b100110 $
#10760
0!
0#
#10770
1!
1#
b100111 $
#10780
0!
0#
#10790
1!
1#
b101000 $
#10800
0!
0#
#10810
1!
1#
b101001 $
#10820
0!
0#
#10830
1!
1#
b101010 $
#10840
0!
0#
#10850
1!
1#
b101011 $
#10860
0!
0#
#10870
1!
1#
b101100 $
#10880
0!
0#
#10890
1!
1#
b101101 $
#10900
0!
0#
#10910
1!
1#
b101110 $
#10920
0!
0#
#10930
1!
1#
b101111 $
#10940
0!
0#
#10950
1!
1#
b110000 $
#10960
0!
0#
#10970
1!
1#
b110001 $
1&
#10980
0!
0#
#10990
1!
1#
b0 $
b1011 %
0&
#11000
0!
0#
#11010
1!
1#
b1 $
#11020
0!
0#
#11030
1!
1#
b10 $
#11040
0!
0#
#11050
1!
1#
b11 $
#11060
0!
0#
#11070
1!
1#
b100 $
#11080
0!
0#
#11090
1!
1#
b101 $
#11100
0!
0#
#11110
1!
1#
b110 $
#11120
0!
0#
#11130
1!
1#
b111 $
#11140
0!
0#
#11150
1!
1#
b1000 $
#11160
0!
0#
#11170
1!
1#
b1001 $
#11180
0!
0#
#11190
1!
1#
b1010 $
#11200
0!
0#
#11210
1!
1#
b1011 $
#11220
0!
0#
#11230
1!
1#
b1100 $
#11240
0!
0#
#11250
1!
1#
b1101 $
#11260
0!
0#
#11270
1!
1#
b1110 $
#11280
0!
0#
#11290
1!
1#
b1111 $
#11300
0!
0#
#11310
1!
1#
b10000 $
#11320
0!
0#
#11330
1!
1#
b10001 $
#11340
0!
0#
#11350
1!
1#
b10010 $
#11360
0!
0#
#11370
1!
1#
b10011 $
#11380
0!
0#
